{
  "fears":[
      {"title": "Страх ответственности",
        "title2":"страха ответсвенности",
        "title3":"жить без ощущения страха ответсвенности"
      },
      {"title": "Страх смерти",
          "title2":"страха смерти",
          "title3":"жить без ощущения страха смерти"},
      {"title": "Страх остутствие",
          "title2":"страха отсутствия",
          "title3":"жить без ощущения страха отсутствия"},
      {"title": "Страх публичных выступлений",
          "title2":"страха публичных выступлений",
          "title3":"жить без ощущения страха публичных выступлений"},
      {"title": "Страх темноты",
          "title2":"страха темноты",
          "title3":"жить без ощущения страха темноты"},
      {"title": "Страх высоты",
          "title2":"страха высоты",
          "title3":"жить без ощущения страха высоты"},
      {"title": "Страх одиночества",
          "title2":"страха одиночества",
          "title3":"жить без ощущения страха одиночества"},
      {"title": "Страх отвержения",
          "title2":"страха отвержения",
          "title3":"жить без ощущения страха отвержения"},
      {"title": "Страх нищеты",
          "title2":"страха нищеты",
          "title3":"жить без ощущения страха нищеты"},
      {"title": "Страх потерять близких",
          "title2":"страха потерять близких",
          "title3":"жить без ощущения страха потерять близких"},
      {"title": "Страх заболеть",
          "title2":"страха заболеть",
          "title3":"жить без ощущения страха заболеть"},
      {"title": "Страх беспомощности",
          "title2":"страха беспомощности",
          "title3":"жить без ощущения страхабеспомощности"},
      {"title": "Страх не справиться",
          "title2":"страха не справиться",
          "title3":"жить без ощущения страха неудачи"},
      {"title": "Страх перемен",
          "title2":"страха перемен",
          "title3":"жить без ощущения страха перемен"},
      {"title": "Страх предательства",
          "title2":"страха предательства",
          "title3":"жить без ощущения страха предательства"},
      {"title": "Страх измены",
          "title2":"страха измены",
          "title3":"жить без ощущения страха измены"},
      {"title": "Страх растолстеть",
          "title2":"страха растолстеть",
          "title3":"жить без ощущения страха растолстеть"},
      {"title": "Страх перед будущим",
          "title2":"страха перед будущим",
          "title3":"жить без ощущения страха будущего"},
      {"title": "Страх людей",
          "title2":"страха людей",
          "title3":"жить без ощущения страха людей"},
      {"title": "Страх проклятия",
          "title2":"страха проклятия",
          "title3":"жить без ощущения страха проклятия"},
      {"title": "Страх несчастий",
          "title2":"страха несчастий",
          "title3":"жить без ощущения страха несчастий"},
      {"title": "Страх провалов / неудачи",
          "title2":"страха провалов / неудачи",
          "title3":"жить без ощущения страха провалов / неудачи"},
      {"title": "Страх успеха",
          "title2":"страха успеха",
          "title3":"жить без ощущения страха успеха"},
      {"title": "Страх наказания",
          "title2":"страха наказания",
          "title3":"жить без ощущения страха наказания"},
      {"title": "Страх насекомых",
          "title2":"страха насекомых",
          "title3":"жить без ощущения страха насекомых"},
      {"title": "Страх животных",
          "title2":"страха животных",
          "title3":"жить без ощущения страха животных"},
      {"title": "Страх змей",
          "title2":"страха змей",
          "title3":"жить без ощущения страха змей"},
      {"title": "Страх воды",
          "title2":"страха воды",
          "title3":"жить без ощущения страха воды"},
      {"title": "Страх богатства",
          "title2":"страха богатства",
          "title3":"жить без ощущения страха богатства"},
      {"title": "Страх любви",
          "title2":"страха любви",
          "title3":"жить без ощущения страха любви"},
      {"title": "Страх крови",
          "title2":"страха крови",
          "title3":"жить без ощущения страха крови"}
      ]
}