{
  "works" : [
    {
      "text":"Программы от Создателя всего сущего",
      "texts":[
        "Я понимаю, как это чувствуется – быть полностью соединенным с Создателем всего сущего",
        "Я знаю, как быть полностью соединенным с Создателем всего сущего",
        "Я знаю Создателя всего сущего",
        "Я понимаю, как это чувствуется – позволить Создателю всего сущего показать мне то, что находится в теле",
        "Я знаю, как позволить Создателю всего сущего показать мне то, что находится в теле",
        "Я знаю, как это чувствуется – с доверием ожидать, что Создатель всего сущего откроет мне, что именно я вижу внутри тела",
        "Я знаю, как верить, что Создатель всего сущего точно скажет мне, на что я смотрю внутри тела",
        "Я знаю разницу между тем, что значит слушать Создателя всего сущего и себя",
        "Я понимаю, как это чувствуется – показывать другим, что они важны для Создателя всего сущего",
        "Я знаю, как показывать другим, что они важны для Создателя всего сущего",
        "Я понимаю, как это чувствуется – излучать энергию Создателя всего сущего в мир",
        "Я знаю, как излучать энергию Создателя всего сущего в мир",
        "Я понимаю, как это – чувствовать себя достойной/достойным любви Создателя всего сущего",
        "Я понимаю, как это чувствуется – знать, что все возможно для Создателя всего сущего",
        "Я понимаю, как это чувствуется – знать Создателя всего сущего",
        "Я знаю, что это возможно – знать, каков Создатель всего сущего",
        "Я понимаю, как это – чувствовать, что я заслуживаю любви Создателя всего сущего",
        "Я знаю, что я заслуживаю любви Создателя всего сущего",
        "Я понимаю, как это чувствуется – подсоединиться к Создателю всего сущего",
        "Я знаю, как соединиться с Создателем всего сущего",
        "Я знаю, что Создатель всего сущего полностью соединен со мной",
        "Я знаю, как жить своей каждодневной жизнью в полном единении с Создателем всего сущего",
        "Я понимаю, как это чувствуется – позволить Создателю всего сущего совершить исцеление",
        "Я знаю, как позволить Создателю всего сущего совершить исцеление",
        "Я знаю, когда позволить Создателю всего сущего совершить исцеление"
      ]
    },
    {
      "text":"Изобилие",
      "texts":[
        "Я понимаю, что такое изобилие по определению Создателя всего сущего с Седьмого плана",
        "Я понимаю, как это чувствуется – жить в изобилии",
        "Я знаю, как жить в изобилии",
        "Я знаю, как жить своей каждодневной жизнью в изобилии",
        "Я знаю, что такое изобилие с перспективы Создателя всего сущего",
        "Я знаю, что это возможно – жить в изобилии"

      ]
    },
    {
      "text":"Принятие",
      "texts":[
        "Я понимаю, что такое принятие по определению Создателя всего сущего с Седьмого плана",
        "Я понимаю, как это чувствуется – когда меня принимают",
        "Я знаю, когда чувствовать, что меня принимают",
        "Я знаю, как жить с принятием",
        "Я знаю, как жить своей каждодневной жизнью с чувством принятия",
        "Я знаю, что такое принятие с перспективы Создателя всего сущего",
        "Я знаю, что это возможно – полностью принять себя"
      ]
    },
    {
      "text":"Принятие и получение",
      "texts":[
        "Я понимаю, как это чувствуется – принять и получить исцеление от другого человека",
        "Я знаю, как принять и получить исцеление от другого",
        "Я знаю, что такое исцеление с перспективы Создателя всего сущего",
        "Я знаю, что это возможно – принимать и получать исцеление от другого человека"
      ]
    },
    {
      "text":"Ответственность",
      "texts":[
        "Я понимаю, что значит ответственность по определению Создателя всего сущего с Седьмого плана",
        "Я понимаю, как это чувствуется – иметь ответственность",
        "Я знаю, когда брать на себя ответственность",
        "Я знаю, как быть ответственным",
        "Я знаю, как жить каждодневной жизнью с ответственностью",
        "Я знаю, что такое ответственность с перспективы Создателя всего сущего",
        "Я знаю, что это возможно – отвечать за собственные действия"
      ]
    },
    {
      "text":"Достижение",
      "texts":[
        "Я понимаю, что значит достижение по определению Создателя всего сущего с Седьмого плана",
        "Я понимаю, как это чувствуется – достичь чего-либо",
        "Я знаю, когда достигать чего-либо",
        "Я знаю, как достигать чего-либо",
        "Я знаю, как жить каждодневной жизнью с достижениями",
        "Я знаю, что такое достижение с перспективы Создателя всего сущего"
      ]
    },
    {
      "text":"Принятие Богом",
      "texts":[
        "Я понимаю, что это значит, что Создатель меня полностью принимает по определению Создателя всего сущего с Седьмого плана",
        "Я понимаю, как это чувствуется, что Создатель принимает меня полностью",
        "Я знаю, как быть полностью принятым Создателем",
        "Я знаю, как жить каждодневной жизнью в полном принятии со стороны Создателя",
        "Я знаю, что такое быть полностью принятым Создателем с перспективы Создателя всего сущего",
        "Я знаю, что это возможно – чтобы Создатель полностью принимал меня"
      ]
    },
    {
      "text":"Выражение чувств",
      "texts":[
        "Я понимаю, что значит выражать свои чувства по определению Создателя всего сущего с Седьмого плана",
        "Я понимаю, как это чувствуется – выражать собственные чувства",
        "Я знаю, когда выражать собственные чувства",
        "Я знаю, как выражать собственные чувства",
        "Я знаю, как жить каждодневной жизнью, выражая свои чувства",
        "Я знаю, что такое выражать собственные чувства с перспективы Создателя всего сущего",
        "Я знаю, что это возможно - выражать собственные чувства"
      ]
    },
    {
      "text":"Равновесие",
      "texts":[
        "Я понимаю, что значит равновесие по определению Создателя всего сущего с Седьмого плана",
        "Я понимаю, как это чувствуется – быть в равновесии",
        "Я знаю, как быть в равновесии",
        "Я знаю, как жить каждодневной жизнью в равновесии",
        "Я знаю, что такое равновесие с перспективы Создателя всего сущего",
        "Я знаю, что это возможно – быть в равновесии"
      ]
    },
    {
      "text":"Красота",
      "texts":[
        "Я понимаю, что такое красота по определению Создателя всего сущего с Седьмого плана",
        "Я понимаю, как это чувствуется – быть красивой",
        "Я знаю, как жить каждодневной жизнью в красоте",
        "Я знаю, что такое красота с перспективы Создателя всего сущего",
        "Я знаю, что это возможно – быть красивой"
      ]
    },
    {
      "text":"Присутствовать в моменте",
      "texts":[
        "Я понимаю, что значит присутствовать в моменте по определению Создателя всего сущего с Седьмого плана",
        "Я понимаю, как это чувствуется – присутствовать в моменте",
        "Я знаю, как присутствовать в моменте",
        "Я знаю, как жить каждодневной жизнью в моменте",
        "Я знаю, что значит присутствовать в настоящем моменте с перспективы Создателя всего сущего",
        "Я знаю, что это возможно – присутствовать в настоящем моменте"
      ]
    }
  ]
}
